{
	"lastRelease":"0.4.6",
	"mainText": "Actualité du logiciel <b>Qrop</b><br/>De temps à autre il y aura quelques sondages pour orienter le développement des nouvelles fonctionnalités.",
	"news": [
		{
			"date": "2022-06-30",
			"title": "Sondage : quel avenir pour Qrop ?",
			"link": "https://framaforms.org/quel-avenir-pour-qrop-1656596845",
			"desc": "Voici quelques nouvelles, après une longue absence. André Hoarau, le développeur principal de Qrop a pris la décision d'arrêter le maraichage : il ne pouvait plus exercer son activité à cause de la proximité d'une carrière-déchèterie-cimenterie. Et après tant d'années passées à s'installer, il n'a pas eu la force de repartir. Il a décidé de devenir développeur, et souhaiterait continuer le développement de Qrop de façon professionnelle. Voici un petit sondage, vos réponses nous aideront à savoir si cela est envisageable !"
		},
		{
			"date": "2021-02-19",
			"title": "Ouverture du forum pour la communauté des utilisateurs de Qrop",
			"link": "https://forum.latelierpaysan.org/viewforum.php?f=276",
			"desc": "Le but du forum est d'accueillir la communauté des utilisateurs de Qrop. Il y a différentes sections pour se présenter, poser des questions autour de l'installation de Qrop et de sa prise en main, demander de l'aide, signaler des bugs, être au courant des nouveautés et futures versions, trouver des liens vers des formations..."
		},
		{
			"date": "2021-01-23",
			"title": "Création de l'interface de News",
			"link": "https://framagit.org/ah/qrop/-/issues/309",
			"desc": "Permettre aux utilisateurs de connaitres les dernières évolutions de l'outil ainsi que la diffusion de sondages aux utilisateurs pour mettre en place la roadmap"
		},
		{
			"date":"2021-01-14",
			"title": "Sondage d'utilisation de Qrop",
			"link": "https://framaforms.org/sondage-dutilisation-de-qrop-1610631611",
			"desc": "Nous vous proposons ce sondage afin de mieux connaître les utilisateurs de Qrop, et ainsi pouvoir établir une feuille de route adaptée aux usages actuels de Qrop. Vous nous aiderez ainsi à prioriser les prochaines fonctionnalités de l'outil."
		}
	]
}
